\relax 
\catcode `"\active 
\citation{Sparrow80}
\select@language{brazil}
\@writefile{toc}{\select@language{brazil}}
\@writefile{lof}{\select@language{brazil}}
\@writefile{lot}{\select@language{brazil}}
\@writefile{toc}{\contentsline {section}{\numberline {1.\hskip -1ex}NOMENCLATURE}{1}}
\@writefile{toc}{\contentsline {section}{\numberline {2.\hskip -1ex}INTRODUCTION}{1}}
\@writefile{toc}{\contentsline {section}{\numberline {3.\hskip -1ex}RESULTS}{1}}
\@writefile{toc}{\contentsline {subsection}{\numberline {3.\hskip -1ex\hskip 1.1ex 1\hskip -1ex}Text body}{1}}
\@writefile{toc}{\contentsline {subsection}{\numberline {3.\hskip -1ex\hskip 1.1ex 2\hskip -1ex}Section tittles and subtitles}{1}}
\@writefile{toc}{\contentsline {subsubsection}{\numberline {3.\hskip -1ex\hskip 1.1ex 2\hskip -1ex\hskip 1.1ex .1\hskip -1ex}Sub-subsections titles}{1}}
\@writefile{toc}{\contentsline {subsubsection}{\numberline {3.\hskip -1ex\hskip 1.1ex 2\hskip -1ex\hskip 1.1ex .2\hskip -1ex}Bibliographic references}{1}}
\bibstyle{abcm}
\bibdata{bibliografia}
\bibcite{Sparrow80}{{1}{1980}{{Sparrow}}{{}}}
\@writefile{toc}{\contentsline {section}{\numberline {4.\hskip -1ex}ACKNOWLEDGEMENTS}{2}}
\@writefile{toc}{\contentsline {section}{\numberline {5.\hskip -1ex}REFERENCES}{2}}
\@writefile{toc}{\contentsline {section}{\numberline {6.\hskip -1ex}RESPONSIBILITY NOTICE}{2}}
